\relax 
\providecommand\hyper@newdestlabel[2]{}
\providecommand\HyperFirstAtBeginDocument{\AtBeginDocument}
\HyperFirstAtBeginDocument{\ifx\hyper@anchor\@undefined
\global\let\oldcontentsline\contentsline
\gdef\contentsline#1#2#3#4{\oldcontentsline{#1}{#2}{#3}}
\global\let\oldnewlabel\newlabel
\gdef\newlabel#1#2{\newlabelxx{#1}#2}
\gdef\newlabelxx#1#2#3#4#5#6{\oldnewlabel{#1}{{#2}{#3}}}
\AtEndDocument{\ifx\hyper@anchor\@undefined
\let\contentsline\oldcontentsline
\let\newlabel\oldnewlabel
\fi}
\fi}
\global\let\hyper@last\relax 
\gdef\HyperFirstAtBeginDocument#1{#1}
\providecommand\HyField@AuxAddToFields[1]{}
\providecommand\HyField@AuxAddToCoFields[2]{}
\providecommand \oddpage@label [2]{}
\@writefile{toc}{\contentsline {section}{\numberline {1}Zadanie 1}{1}{section.1}}
\newlabel{zadanie-1}{{1}{1}{Zadanie 1}{section.1}{}}
\@writefile{toc}{\contentsline {subsection}{\numberline {1.1}Vzorkovacia frekvencia sign\IeC {\'a}lu:}{1}{subsection.1.1}}
\newlabel{vzorkovacia-frekvencia-signuxe1lu}{{1.1}{1}{Vzorkovacia frekvencia signálu:}{subsection.1.1}{}}
\@writefile{toc}{\contentsline {subsection}{\numberline {1.2}D\IeC {\'l}\IeC {\v z}ka sign\IeC {\'a}lu vo vzork\IeC {\'a}ch a sekund\IeC {\'a}ch}{1}{subsection.1.2}}
\newlabel{dux13aux17eka-signuxe1lu-vo-vzorkuxe1ch-a-sekunduxe1ch}{{1.2}{1}{Dĺžka signálu vo vzorkách a sekundách}{subsection.1.2}{}}
\@writefile{toc}{\contentsline {section}{\numberline {2}Zadanie 2}{1}{section.2}}
\newlabel{zadanie-2}{{2}{1}{Zadanie 2}{section.2}{}}
\@writefile{toc}{\contentsline {subsection}{\numberline {2.1}Spektrum sign\IeC {\'a}lu na z\IeC {\'a}klade Fourierovej transform\IeC {\'a}cie}{1}{subsection.2.1}}
\newlabel{spektrum-signuxe1lu-na-zuxe1klade-fourierovej-transformuxe1cie}{{2.1}{1}{Spektrum signálu na základe Fourierovej transformácie}{subsection.2.1}{}}
\@writefile{toc}{\contentsline {section}{\numberline {3}Zadanie 3}{1}{section.3}}
\newlabel{zadanie-3}{{3}{1}{Zadanie 3}{section.3}{}}
\@writefile{toc}{\contentsline {subsection}{\numberline {3.1}Maximum modulu spektra}{1}{subsection.3.1}}
\newlabel{maximum-modulu-spektra}{{3.1}{1}{Maximum modulu spektra}{subsection.3.1}{}}
\@writefile{toc}{\contentsline {section}{\numberline {4}Zadanie 4}{1}{section.4}}
\newlabel{zadanie-4}{{4}{1}{Zadanie 4}{section.4}{}}
\@writefile{toc}{\contentsline {subsection}{\numberline {4.1}IIR Filter - nuly, p\IeC {\'o}ly, stabilita}{1}{subsection.4.1}}
\newlabel{iir-filter---nuly-puxf3ly-stabilita}{{4.1}{1}{IIR Filter - nuly, póly, stabilita}{subsection.4.1}{}}
\@writefile{toc}{\contentsline {section}{\numberline {5}Zadanie 5}{1}{section.5}}
\newlabel{zadanie-5}{{5}{1}{Zadanie 5}{section.5}{}}
\@writefile{toc}{\contentsline {subsection}{\numberline {5.1}IIR Filter - Frekven\IeC {\v c}n\IeC {\'a} charakteristika, typ}{1}{subsection.5.1}}
\newlabel{iir-filter---frekvenux10dnuxe1-charakteristika-typ}{{5.1}{1}{IIR Filter - Frekvenčná charakteristika, typ}{subsection.5.1}{}}
\@writefile{toc}{\contentsline {section}{\numberline {6}Zadanie 6}{1}{section.6}}
\newlabel{zadanie-6}{{6}{1}{Zadanie 6}{section.6}{}}
\@writefile{toc}{\contentsline {subsection}{\numberline {6.1}Signal po aplikovan\IeC {\'\i } IIR filtru - Spektrum sign\IeC {\'a}lu}{1}{subsection.6.1}}
\newlabel{signal-po-aplikovanuxed-iir-filtru---spektrum-signuxe1lu}{{6.1}{1}{Signal po aplikovaní IIR filtru - Spektrum signálu}{subsection.6.1}{}}
\@writefile{toc}{\contentsline {section}{\numberline {7}Zadanie 7}{1}{section.7}}
\newlabel{zadanie-7}{{7}{1}{Zadanie 7}{section.7}{}}
\@writefile{toc}{\contentsline {subsection}{\numberline {7.1}Ur\IeC {\v c}enie maxima modulu spektra filtrovan\IeC {\'e}ho sign\IeC {\'a}lu}{1}{subsection.7.1}}
\newlabel{urux10denie-maxima-modulu-spektra-filtrovanuxe9ho-signuxe1lu}{{7.1}{1}{Určenie maxima modulu spektra filtrovaného signálu}{subsection.7.1}{}}
\@writefile{toc}{\contentsline {section}{\numberline {8}Zadanie 8}{1}{section.8}}
\newlabel{zadanie-8}{{8}{1}{Zadanie 8}{section.8}{}}
\@writefile{toc}{\contentsline {subsection}{\numberline {8.1}Identifikovanie obdlznikovych signalov v sign\IeC {\'a}le}{1}{subsection.8.1}}
\newlabel{identifikovanie-obdlznikovych-signalov-v-signuxe1le}{{8.1}{1}{Identifikovanie obdlznikovych signalov v signále}{subsection.8.1}{}}
\@writefile{toc}{\contentsline {section}{\numberline {9}Zadanie 9}{1}{section.9}}
\newlabel{zadanie-9}{{9}{1}{Zadanie 9}{section.9}{}}
\@writefile{toc}{\contentsline {subsection}{\numberline {9.1}V\IeC {\'y}po\IeC {\v c}et autokorela\IeC {\v c}n\IeC {\'y}ch koeficientov}{1}{subsection.9.1}}
\newlabel{vuxfdpoux10det-autokorelaux10dnuxfdch-koeficientov}{{9.1}{1}{Výpočet autokorelačných koeficientov}{subsection.9.1}{}}
\@writefile{toc}{\contentsline {section}{\numberline {10}Zadanie 10}{1}{section.10}}
\newlabel{zadanie-10}{{10}{1}{Zadanie 10}{section.10}{}}
\@writefile{toc}{\contentsline {subsection}{\numberline {10.1}Hodnota koeficientu R{[}10{]}}{1}{subsection.10.1}}
\newlabel{hodnota-koeficientu-r10}{{10.1}{1}{Hodnota koeficientu R{[}10{]}}{subsection.10.1}{}}
